<?xml version="1.0" encoding="utf-8"?>
<!-- Svg Vector Icons : http://www.onlinewebfonts.com/icon -->
<!DOCTYPE svg PUBLIC "-//W3C//DTD SVG 1.1//EN" "http://www.w3.org/Graphics/SVG/1.1/DTD/svg11.dtd">
<svg version="1.1" xmlns="http://www.w3.org/2000/svg" xmlns:xlink="http://www.w3.org/1999/xlink" x="0px" y="0px" viewBox="0 0 1000 1000" enable-background="new 0 0 1000 1000" xml:space="preserve">
<metadata> Svg Vector Icons : http://www.onlinewebfonts.com/icon </metadata>
<g><g transform="translate(0.000000,512.000000) scale(0.100000,-0.100000)"><path d="M4559.5,5005.1c-289.2-30.6-634-109.2-898.3-203l-250.9-90l-1216.2-9.6c-873.4-7.7-1227.7-17.2-1254.5-34.5c-59.4-34.5-139.8-124.5-160.9-183.9c-28.7-74.7-24.9-191.5,7.7-337.1c84.3-350.5,342.8-612.9,712.5-720.1l139.8-40.2l-90-124.5c-471.2-645.4-743.1-1446-785.3-2306c-11.5-247.1-17.2-277.7-74.7-404.1c-137.9-304.5-235.6-685.7-250.9-994c-38.3-718.2,392.6-1225.8,1153-1352.2l143.6-24.9v-262.4c0-145.6,7.7-285.4,19.2-314.1c36.4-97.7,103.4-107.2,670.3-101.5l513.3,5.7l49.8,46c49.8,46,49.8,49.8,49.8,339v291.1l120.7,11.5c65.1,7.7,346.7,34.5,626.3,63.2c450.1,46,588,51.7,1216.2,51.7s766.1-5.8,1216.2-51.7c279.6-28.7,561.2-55.5,628.2-63.2l118.8-11.5v-291.1c0-289.2,0-293,49.8-339l49.8-46l513.3-5.7c566.9-5.7,633.9,3.8,670.4,101.5c11.5,28.7,19.2,168.5,19.2,314.1v262.4l143.6,24.9c760.4,126.4,1191.3,633.9,1153,1352.2c-15.3,308.3-113,689.5-250.9,994c-57.5,126.4-63.2,157.1-74.7,404.1c-40.2,844.6-308.4,1629.9-783.4,2290.7l-105.3,145.6l116.8,23c260.5,53.6,532.4,258.6,656.9,492.2c107.2,201.1,149.4,459.7,93.8,588c-30.6,74.7-116.8,157.1-189.6,183.9c-36.4,13.4-444.4,21.1-1223.9,21.1H6633.7l-176.2,65.1c-233.7,88.1-488.4,155.1-768,204.9C5421.4,5016.6,4835.3,5035.8,4559.5,5005.1z M5375.4,4679.5c658.9-67,1250.7-279.6,1796.5-643.5c203-136,250.9-159,296.9-149.4c70.9,13.4,118.7,55.5,136,118.8c21.1,88.1-24.9,151.3-187.7,264.3L7261.9,4375h829.3h829.3l-13.4-90c-28.7-212.6-162.8-396.5-358.1-498c-92-46-128.3-51.7-365.8-61.3c-262.4-11.5-266.2-13.4-312.2-65.1c-82.4-95.8-72.8-122.6,162.8-409.9c319.8-388.8,570.7-865.7,720.1-1363.7c46-157.1,124.5-526.7,124.5-591.8c0-21.1-44,7.7-132.1,91.9c-147.5,137.9-285.4,227.9-465.4,304.5c-114.9,47.9-134.1,49.8-465.4,47.9c-394.6,0-630.1-34.5-1120.4-162.8c-1137.7-295-1128.1-295-1695-295c-522.9,0-656.9,21.1-1377.1,212.6c-781.4,208.8-1135.8,266.2-1547.5,252.8c-199.2-5.7-254.7-15.3-356.2-57.5c-180-74.7-316-164.7-465.4-302.6c-97.7-91.9-132.1-114.9-132.1-88.1c0,19.2,21.1,143.7,49.8,277.7c128.3,639.7,407.9,1225.8,827.4,1733.3c178.1,214.5,195.4,273.9,107.3,358.2c-46,42.1-69,46-300.7,57.5c-226,9.6-264.3,15.3-354.3,61.3c-195.4,101.5-329.4,287.3-358.2,498l-13.4,90h829.3h829.3l-155.1-105.3c-162.8-113-208.8-176.2-187.7-264.3c17.2-63.2,65.1-105.3,136-118.8c46-9.6,95.8,15.3,302.6,153.2c310.3,204.9,611,352.4,938.5,459.7C4293.3,4671.8,4852.5,4733.1,5375.4,4679.5z M2749.6,1368c120.7-21.1,430.9-95.8,689.5-162.8C4249.2,990.7,4517.3,946.7,5000,946.7c482.7,0,750.8,44,1560.9,258.6c658.9,172.4,860,206.8,1235.4,208.8c306.4,1.9,306.4,1.9,434.8-59.4c157.1-72.8,392.6-293,530.5-492.2c208.8-304.5,388.8-743.1,452-1110.9c91.9-540.1-65.1-905.9-475-1101.3c-262.4-124.5-348.6-139.8-861.9-149.4c-484.6-9.6-917.4,9.6-1526.5,70.9c-1059.2,105.3-1641.4,105.3-2700.5,0c-609.1-61.3-1041.9-80.4-1526.5-70.9c-513.3,9.6-599.5,24.9-860,149.4C999-1225.3,845.8-1035.7,784.5-759.8C669.6-248.5,993.3,661.3,1451,1115.2c151.3,147.5,227.9,203,371.6,264.3c107.3,46,126.4,47.9,409.9,38.3C2414.4,1412.1,2615.5,1392.9,2749.6,1368z M2711.3-1993.3v-162.8h-325.6h-325.6v162.8v162.8h325.6h325.6V-1993.3z M7936.1-1997.1l5.7-159h-327.5h-325.6v162.8v162.8l321.8-3.8l319.9-5.7L7936.1-1997.1z"/><path d="M3103.9,3055.4c-210.7-53.6-287.3-231.7-160.9-373.5c180-206.9,620.5-86.2,584.2,159c-13.4,86.2-53.6,143.6-130.2,180C3316.5,3057.3,3178.6,3074.5,3103.9,3055.4z"/><path d="M6689.3,3051.5c-134.1-30.6-224.1-124.5-224.1-231.7c0-74.7,72.8-168.5,159-206.8c151.3-70.9,337.1-40.2,432.9,69c120.6,136,55.5,304.5-137.9,362C6811.8,3076.4,6794.6,3076.4,6689.3,3051.5z"/><path d="M2048.6,1069.2c-277.7-99.6-406-501.8-226-716.3c65.1-74.7,170.5-80.4,235.6-11.5c46,47.9,46,80.4,11.5,252.8c-9.6,46-1.9,70.8,38.3,118.7c67,78.5,160.9,84.3,231.8,11.5c51.7-49.8,51.7-51.7,15.3-260.5c-9.6-59.4-3.8-78.5,38.3-118.7c51.7-53.6,137.9-65.1,206.9-28.7c59.4,32.5,111.1,164.7,111.1,296.9C2711.3,956.2,2378,1186.1,2048.6,1069.2z"/><path d="M7562.6,1052c-176.2-90-273.9-245.2-273.9-440.5c0-130.2,51.7-262.4,111.1-294.9c69-36.4,155.2-24.9,206.9,28.7c42.1,40.2,47.9,59.4,38.3,118.7c-36.4,208.8-36.4,210.7,15.4,260.5c70.8,72.8,164.7,67,231.7-11.5c40.2-47.9,47.9-72.8,38.3-118.7c-34.5-172.4-34.5-204.9,11.5-252.8c65.1-69,170.5-63.2,235.6,11.5c134.1,160.9,105.3,440.5-67,611c-90,90-166.6,122.6-314.1,130.2C7679.5,1101.8,7648.8,1096,7562.6,1052z"/><path d="M3427.6-2048.8c-40.2-34.5-53.6-61.3-53.6-116.8c0-114.9,57.5-151.3,306.4-187.7c982.5-151.3,1396.2-164.7,2133.6-70.9c538.2,68.9,708.7,99.6,754.6,136c88.1,69,78.5,195.4-17.2,258.6c-47.9,30.7-67,30.7-407.9-19.2c-1015.1-143.6-1289-143.6-2271.5-1.9c-180,26.8-340.9,47.9-358.2,47.9C3494.6-2002.9,3456.3-2023.9,3427.6-2048.8z"/><path d="M1954.7-2701.9c-74.7-72.8-63.2-155.1,34.5-289.2c86.2-118.8,249-273.9,340.9-327.5l55.5-32.6v-658.8v-658.9l55.5-55.5l55.5-55.5h1038.1H4571l46,47.9l47.9,46v471.1v469.2H5000h335.2V-4215v-471.1l47.9-46l46-47.9h1036.2h1038.1l55.5,55.5l55.6,55.5v658.9v658.8l55.5,32.6c178.1,105.3,423.3,394.6,423.3,501.8c0,84.3-51.7,141.7-139.8,157.1c-67,9.6-76.6,5.7-143.6-72.8c-241.3-283.5-430.9-408-737.4-486.5c-203-51.7-517.1-86.2-773.8-86.2c-252.8,0-312.2-34.5-312.2-182c0-47.9,13.4-74.7,51.7-107.2c51.7-40.2,65.1-40.2,379.2-30.7c317.9,11.5,566.9,42.1,771.9,97.7l99.6,26.8v-273.9v-273.9l-91.9,34.5c-49.8,19.2-130.2,40.2-178.1,47.9c-157.1,23-398.4-63.2-503.7-178.1l-34.5-40.2l-99.6,74.7c-134.1,101.5-243.2,139.8-404.1,139.8c-97.7,1.9-159-9.6-224.1-40.2l-91.9-40.2v249c0,375.4-38.3,429-277.7,398.4c-149.4-19.2-618.6-17.2-766.1,1.9c-149.4,19.2-226-9.6-256.6-95.8c-11.5-34.5-21.1-174.3-21.1-308.4v-245.2l-90,40.2c-189.6,84.3-442.4,44-632-97.7l-97.7-74.7l-51.7,53.6c-28.7,28.7-105.3,78.5-168.5,107.2c-149.4,67-335.2,72.8-486.5,13.4l-101.5-40.2v273.9v273.9l101.5-26.8c201.1-55.5,452-86.2,771.9-97.7l329.4-11.5l49.8,49.8c49.8,49.8,63.2,126.4,38.3,195.4c-23,59.4-113,86.2-300.7,86.2c-256.7,0-570.8,34.5-773.8,86.2c-306.4,78.5-498,204.9-735.5,484.6C2109.9-2636.8,2029.4-2625.3,1954.7-2701.9z M3190.1-4329.9c26.8-13.4,69-47.9,93.8-74.7l46-49.8h-281.5c-268.1,0-279.6,1.9-262.4,36.4c23,40.2,103.4,95.8,172.4,118.7C3017.7-4282,3123-4295.4,3190.1-4329.9z M4097.9-4303.1c51.7-13.4,109.2-46,147.5-86.2l63.2-65.1h-281.5c-270.1,0-281.5,1.9-264.3,36.4c23,42.1,103.4,95.8,172.4,116.8C4004.1-4280.1,4006-4280.1,4097.9-4303.1z M6154.9-4343.3c34.5-21.1,70.9-53.6,80.4-74.7c19.2-34.5,9.6-36.4-262.4-36.4h-281.5l63.2,65.1C5859.9-4280.1,6018.9-4262.9,6154.9-4343.3z M7131.7-4343.3c34.5-21.1,70.9-53.6,80.4-74.7c19.1-34.5,9.6-36.4-262.4-36.4h-283.5l59.4,59.4C6840.6-4280.1,6997.6-4261,7131.7-4343.3z"/></g></g>
</svg>