<svg version="1.1"
      xmlns="http://www.w3.org/2000/svg"
      xmlns:xlink="http://www.w3.org/1999/xlink"  id="snapshot-23028" width="250" height="250" viewBox="0 0 250 250"><desc>This image was made on Patterninja.com</desc><defs>
<!-- image 86428 -->
<g id="transformed-86428" data-image="86428" transform="translate(-44.43208866258442, 57.567911337415566) rotate(345, 75.43208866258442, 75.43208866258443)"><g><svg version="1.1" width="150.86417732516884px" height="150.86417732516887px" viewBox="0 0 150.86417732516884 150.86417732516887"><g id="original-86428"><svg xmlns="http://www.w3.org/2000/svg" viewBox="0 0 1000 1000" xmlns:xlink="http://www.w3.org/1999/xlink" version="1.1" preserveAspectRatio="xMidYMid meet">
  <path d="M455.95 11.49c-28.92 3.06-63.4 10.92-89.83 20.3l-25.09 9-121.62.96c-87.34.77-122.77 1.72-125.45 3.45-5.94 3.45-13.98 12.45-16.09 18.39-2.87 7.47-2.49 19.15.77 33.71 8.43 35.05 34.28 61.29 71.25 72.01l13.98 4.02-9 12.45c-47.12 64.54-74.31 144.6-78.53 230.6-1.15 24.71-1.72 27.77-7.47 40.41-13.79 30.45-23.56 68.57-25.09 99.4-3.83 71.82 39.26 122.58 115.3 135.22l14.36 2.49v26.24c0 14.56.77 28.54 1.92 31.41 3.64 9.77 10.34 10.72 67.03 10.15l51.33-.57 4.98-4.6c4.98-4.6 4.98-4.98 4.98-33.9v-29.11l12.07-1.15c6.51-.77 34.67-3.45 62.63-6.32 45.01-4.6 58.8-5.17 121.62-5.17s76.61.58 121.62 5.17c27.96 2.87 56.12 5.55 62.82 6.32l11.88 1.15v29.11c0 28.92 0 29.3 4.98 33.9l4.98 4.6 51.33.57c56.69.57 63.39-.38 67.04-10.15 1.15-2.87 1.92-16.85 1.92-31.41V693.9l14.36-2.49c76.04-12.64 119.13-63.39 115.3-135.22-1.53-30.83-11.3-68.95-25.09-99.4-5.75-12.64-6.32-15.71-7.47-40.41-4.02-84.46-30.84-162.99-78.34-229.07l-10.53-14.56 11.68-2.3c26.05-5.36 53.24-25.86 65.69-49.22 10.72-20.11 14.94-45.97 9.38-58.8-3.06-7.47-11.68-15.71-18.96-18.39-3.64-1.34-44.44-2.11-122.39-2.11H663.37l-17.62-6.51c-23.37-8.81-48.84-15.51-76.8-20.49-26.81-4.59-85.42-6.51-113-3.44zm81.59 32.56c65.89 6.7 125.07 27.96 179.65 64.35 20.3 13.6 25.09 15.9 29.69 14.94 7.09-1.34 11.87-5.55 13.6-11.88 2.11-8.81-2.49-15.13-18.77-26.43L726.19 74.5h165.86l-1.34 9c-2.87 21.26-16.28 39.65-35.81 49.8-9.2 4.6-12.83 5.17-36.58 6.13-26.24 1.15-26.62 1.34-31.22 6.51-8.24 9.58-7.28 12.26 16.28 40.99 31.98 38.88 57.07 86.57 72.01 136.37 4.6 15.71 12.45 52.67 12.45 59.18 0 2.11-4.4-.77-13.21-9.19-14.75-13.79-28.54-22.79-46.54-30.45-11.49-4.79-13.41-4.98-46.54-4.79-39.46 0-63.01 3.45-112.04 16.28-113.77 29.5-112.81 29.5-169.5 29.5-52.29 0-65.69-2.11-137.71-21.26-78.14-20.88-113.58-26.62-154.75-25.28-19.92.57-25.47 1.53-35.62 5.75-18 7.47-31.6 16.47-46.54 30.26-9.77 9.19-13.21 11.49-13.21 8.81 0-1.92 2.11-14.37 4.98-27.77 12.83-63.97 40.79-122.58 82.74-173.33 17.81-21.45 19.54-27.39 10.73-35.82-4.6-4.21-6.9-4.6-30.07-5.75-22.6-.96-26.43-1.53-35.43-6.13-19.54-10.15-32.94-28.73-35.82-49.8l-1.34-9h165.86l-15.51 10.53c-16.28 11.3-20.88 17.62-18.77 26.43 1.72 6.32 6.51 10.53 13.6 11.88 4.6.96 9.58-1.53 30.26-15.32 31.03-20.49 61.1-35.24 93.85-45.97 52.07-17.24 107.99-23.37 160.28-18.01zM274.96 375.2c12.07 2.11 43.09 9.58 68.95 16.28 81.01 21.45 107.82 25.85 156.09 25.85 48.27 0 75.08-4.4 156.09-25.86 65.89-17.24 86-20.68 123.54-20.88 30.64-.19 30.64-.19 43.48 5.94 15.71 7.28 39.26 29.3 53.05 49.22 20.88 30.45 38.88 74.31 45.2 111.09 9.19 54.01-6.51 90.59-47.5 110.13-26.24 12.45-34.86 13.98-86.19 14.94-48.46.96-91.74-.96-152.65-7.09-105.92-10.53-164.14-10.53-270.05 0-60.91 6.13-104.19 8.04-152.65 7.09-51.33-.96-59.95-2.49-86-14.94-26.42-12.44-41.74-31.4-47.87-58.99-11.49-51.13 20.88-142.11 66.65-187.5 15.13-14.75 22.79-20.3 37.16-26.43 10.73-4.6 12.64-4.79 40.99-3.83 18.19.57 38.3 2.49 51.71 4.98zm-3.83 336.13v16.28h-65.12v-32.56h65.12v16.28zm522.48.38l.57 15.9h-65.31v-32.56l32.18.38 31.99.57.57 15.71z" fill="rgba(0, 0, 0, 1)" stroke="none"/>
  <path d="M310.39 206.46c-21.07 5.36-28.73 23.17-16.09 37.35 18 20.69 62.05 8.62 58.42-15.9-1.34-8.62-5.36-14.36-13.02-18-8.05-3.64-21.84-5.36-29.31-3.45z" fill="rgba(0, 0, 0, 1)" stroke="none"/>
  <path d="M668.93 206.85c-13.41 3.06-22.41 12.45-22.41 23.17 0 7.47 7.28 16.85 15.9 20.68 15.13 7.09 33.71 4.02 43.29-6.9 12.06-13.6 5.55-30.45-13.79-36.2-10.74-3.24-12.46-3.24-22.99-.75z" fill="rgba(0, 0, 0, 1)" stroke="none"/>
  <path d="M204.86 405.08c-27.77 9.96-40.6 50.18-22.6 71.63 6.51 7.47 17.05 8.04 23.56 1.15 4.6-4.79 4.6-8.04 1.15-25.28-.96-4.6-.19-7.08 3.83-11.87 6.7-7.85 16.09-8.43 23.18-1.15 5.17 4.98 5.17 5.17 1.53 26.05-.96 5.94-.38 7.85 3.83 11.87 5.17 5.36 13.79 6.51 20.69 2.87 5.94-3.25 11.11-16.47 11.11-29.69-.01-34.28-33.34-57.27-66.28-45.58z" fill="rgba(0, 0, 0, 1)" stroke="none"/>
  <path d="M756.26 406.8c-17.62 9-27.39 24.52-27.39 44.05 0 13.02 5.17 26.24 11.11 29.49 6.9 3.64 15.52 2.49 20.69-2.87 4.21-4.02 4.79-5.94 3.83-11.87-3.64-20.88-3.64-21.07 1.54-26.05 7.08-7.28 16.47-6.7 23.17 1.15 4.02 4.79 4.79 7.28 3.83 11.87-3.45 17.24-3.45 20.49 1.15 25.28 6.51 6.9 17.05 6.32 23.56-1.15 13.41-16.09 10.53-44.05-6.7-61.1-9-9-16.66-12.26-31.41-13.02-11.69-.76-14.76-.18-23.38 4.22z" fill="rgba(0, 0, 0, 1)" stroke="none"/>
  <path d="M342.76 716.88c-4.02 3.45-5.36 6.13-5.36 11.68 0 11.49 5.75 15.13 30.64 18.77 98.25 15.13 139.62 16.47 213.36 7.09 53.82-6.89 70.87-9.96 75.46-13.6 8.81-6.9 7.85-19.54-1.72-25.86-4.79-3.07-6.7-3.07-40.79 1.92-101.51 14.36-128.9 14.36-227.15.19-18-2.68-34.09-4.79-35.82-4.79-1.92.01-5.75 2.11-8.62 4.6z" fill="rgba(0, 0, 0, 1)" stroke="none"/>
  <path d="M195.47 782.19c-7.47 7.28-6.32 15.51 3.45 28.92 8.62 11.88 24.9 27.39 34.09 32.75l5.55 3.26V978.89l5.55 5.55 5.55 5.55H457.1l4.6-4.79 4.79-4.6v-94.03h67.03V980.61l4.79 4.6 4.6 4.79h207.43l5.55-5.55 5.56-5.55V847.13l5.55-3.26c17.81-10.53 42.33-39.46 42.33-50.18 0-8.43-5.17-14.17-13.98-15.71-6.7-.96-7.66-.57-14.36 7.28-24.13 28.35-43.09 40.8-73.74 48.65-20.3 5.17-51.71 8.62-77.38 8.62-25.28 0-31.22 3.45-31.22 18.2 0 4.79 1.34 7.47 5.17 10.72 5.17 4.02 6.51 4.02 37.92 3.07 31.79-1.15 56.69-4.21 77.19-9.77l9.96-2.68v54.78l-9.19-3.45c-4.98-1.92-13.02-4.02-17.81-4.79-15.71-2.3-39.84 6.32-50.37 17.81l-3.45 4.02-9.96-7.47c-13.41-10.15-24.32-13.98-40.41-13.98-9.77-.19-15.9.96-22.41 4.02l-9.19 4.02v-24.9c0-37.54-3.83-42.9-27.77-39.84-14.94 1.92-61.86 1.72-76.61-.19-14.94-1.92-22.6.96-25.66 9.58-1.15 3.45-2.11 17.43-2.11 30.84v24.52l-9-4.02c-18.96-8.43-44.24-4.4-63.2 9.77l-9.77 7.47-5.17-5.36c-2.87-2.87-10.53-7.85-16.85-10.72-14.94-6.7-33.52-7.28-48.65-1.34l-10.15 4.02v-54.78l10.15 2.68c20.11 5.55 45.2 8.62 77.19 9.77l32.94 1.15 4.98-4.98c4.98-4.98 6.32-12.64 3.83-19.54-2.3-5.94-11.3-8.62-30.07-8.62-25.67 0-57.08-3.45-77.38-8.62-30.64-7.85-49.8-20.49-73.55-48.46-8.26-9.78-16.31-10.93-23.78-3.27zm123.54 162.8c2.68 1.34 6.9 4.79 9.38 7.47l4.6 4.98h-28.15c-26.81 0-27.96-.19-26.24-3.64 2.3-4.02 10.34-9.58 17.24-11.87 5.93-1.73 16.46-.39 23.17 3.06zm90.78-2.68c5.17 1.34 10.92 4.6 14.75 8.62l6.32 6.51h-28.15c-27.01 0-28.15-.19-26.43-3.64 2.3-4.21 10.34-9.58 17.24-11.68 6.89-2.11 7.08-2.11 16.27.19zm205.7 4.02c3.45 2.11 7.09 5.36 8.04 7.47 1.92 3.45.96 3.64-26.24 3.64h-28.15l6.32-6.51c10.53-10.92 26.43-12.64 40.03-4.6zm97.68 0c3.45 2.11 7.09 5.36 8.04 7.47 1.91 3.45.96 3.64-26.24 3.64h-28.35l5.94-5.94c11.5-11.49 27.2-13.4 40.61-5.17z" fill="rgba(0, 0, 0, 1)" stroke="none"/>
</svg>
</g></svg></g></g>
<!-- /image 86428 -->
</defs><rect x="0" y="0" width="250" height="250" fill="rgba(255, 211, 31, 1)"></rect><use xlink:href="#transformed-86428" transform="translate(-250, -250)"></use><use xlink:href="#transformed-86428" transform="translate(0, -250)"></use><use xlink:href="#transformed-86428" transform="translate(250, -250)"></use><use xlink:href="#transformed-86428" transform="translate(-250, 0)"></use><use xlink:href="#transformed-86428" transform="translate(0, 0)"></use><use xlink:href="#transformed-86428" transform="translate(250, 0)"></use><use xlink:href="#transformed-86428" transform="translate(-250, 250)"></use><use xlink:href="#transformed-86428" transform="translate(0, 250)"></use><use xlink:href="#transformed-86428" transform="translate(250, 250)"></use></svg>